[
  {
    "text_to_title_page": "Criar conta",
    "text_to_change_login": "Já possuo uma conta",
    "text_to_content_page": "Insira seus dados para se cadastrar no aplicativo"
  },
  {
    "text_to_title_page": "Logar com conta",
    "text_to_change_login": "Criar nova conta",
    "text_to_content_page": "Insira seus dados para se logar no aplicativo"
  }
]